{
    "read_files": "[ ../trimming/39_GD_Ad_S71_L001.Trimmed.fastq.gz ]",
    "expected_format": "SF",
    "compatible_fragment_ratio": 1.0,
    "num_compatible_fragments": 3664301,
    "num_assigned_fragments": 3664301,
    "num_frags_with_concordant_consistent_mappings": 3664126,
    "num_frags_with_inconsistent_or_orphan_mappings": 345,
    "strand_mapping_bias": 0.9999058527138024,
    "MSF": 0,
    "OSF": 0,
    "ISF": 0,
    "MSR": 0,
    "OSR": 0,
    "ISR": 0,
    "SF": 3664126,
    "SR": 345,
    "MU": 0,
    "OU": 0,
    "IU": 0,
    "U": 0
}