{
    "salmon_version": "1.8.0",
    "samp_type": "none",
    "opt_type": "vb",
    "quant_errors": [],
    "num_libraries": 1,
    "library_types": [
        "SF"
    ],
    "frag_dist_length": 1001,
    "frag_length_mean": 250.0000097391447,
    "frag_length_sd": 25.001769513739427,
    "seq_bias_correct": false,
    "gc_bias_correct": false,
    "num_bias_bins": 4096,
    "mapping_type": "mapping",
    "keep_duplicates": false,
    "num_valid_targets": 44475,
    "num_decoy_targets": 0,
    "num_eq_classes": 23893,
    "serialized_eq_classes": false,
    "eq_class_properties": [
        "range_factorized",
        "gzipped"
    ],
    "length_classes": [
        480,
        711,
        1118,
        1929,
        39427
    ],
    "index_seq_hash": "5e89805017ebf92b074ebdf9e6e41e27cd918b46f09f0fa41ba3f5133429060a",
    "index_name_hash": "d7a3f04d06e968e6b4e6d3994e8bab221a1719c3db6806d163864bd81bfdda9d",
    "index_seq_hash512": "8c9c4722a12da4d7a887e52add1332f502579de84da1b90b72063f566e03fbf1994ce57dac94d5a98619197133161064d60c1c5a0d6ed3c697e15d1cc3fee581",
    "index_name_hash512": "6e69ce75f417f7ac8395cddc27ddd185cc90334dae91635ed0e71e26ecd29fb6c1b5c7c2783d29ddabd8dad91bb43b810424d18f46a9becc44121c075941befe",
    "index_decoy_seq_hash": "e3b0c44298fc1c149afbf4c8996fb92427ae41e4649b934ca495991b7852b855",
    "index_decoy_name_hash": "e3b0c44298fc1c149afbf4c8996fb92427ae41e4649b934ca495991b7852b855",
    "num_bootstraps": 0,
    "num_processed": 5116515,
    "num_mapped": 2483387,
    "num_decoy_fragments": 0,
    "num_dovetail_fragments": 0,
    "num_fragments_filtered_vm": 677293,
    "num_alignments_below_threshold_for_mapped_fragments_vm": 2015595,
    "percent_mapped": 48.53668952402172,
    "call": "quant",
    "start_time": "Mon Jun 27 10:02:34 2022",
    "end_time": "Mon Jun 27 10:02:46 2022"
}