{
    "read_files": "[ /mnt/DATA/home/samuele/Shared/3-prime-tag/QEIC04119/Trematomus/trim/trim2/2_Ce_S135_L002_1.Trimmed.fastq.gz ]",
    "expected_format": "SF",
    "compatible_fragment_ratio": 1.0,
    "num_compatible_fragments": 3753033,
    "num_assigned_fragments": 3753033,
    "num_frags_with_concordant_consistent_mappings": 3752270,
    "num_frags_with_inconsistent_or_orphan_mappings": 1222,
    "strand_mapping_bias": 0.9996744364980663,
    "MSF": 0,
    "OSF": 0,
    "ISF": 0,
    "MSR": 0,
    "OSR": 0,
    "ISR": 0,
    "SF": 3752270,
    "SR": 1222,
    "MU": 0,
    "OU": 0,
    "IU": 0,
    "U": 0
}