{
    "salmon_version": "1.8.0",
    "index": "../Adamussium_colbecki.filtered_transcriptome.idx/",
    "libType": "A",
    "unmatedReads": "../trimming/17_MSO_Ad_S83_L001.Trimmed.fastq.gz",
    "validateMappings": [],
    "output": "../trimming/17_MSO_Ad_S83_L001.Trimmed.mapping",
    "threads": "24",
    "geneMap": "../trans2gene/trans2gene.tsv",
    "auxDir": "aux_info"
}