{
    "read_files": "[ /mnt/DATA/home/samuele/Shared/3-prime-tag/QEIC04119/Trematomus/trim/trim2/16_Br_S116_L002_1.Trimmed.fastq.gz ]",
    "expected_format": "SF",
    "compatible_fragment_ratio": 1.0,
    "num_compatible_fragments": 941135,
    "num_assigned_fragments": 941135,
    "num_frags_with_concordant_consistent_mappings": 938597,
    "num_frags_with_inconsistent_or_orphan_mappings": 3249,
    "strand_mapping_bias": 0.9965503914652714,
    "MSF": 0,
    "OSF": 0,
    "ISF": 0,
    "MSR": 0,
    "OSR": 0,
    "ISR": 0,
    "SF": 938597,
    "SR": 3249,
    "MU": 0,
    "OU": 0,
    "IU": 0,
    "U": 0
}