{
    "read_files": "[ ../trimming/26_MSO_Ad_S165_L002.Trimmed.fastq.gz ]",
    "expected_format": "SF",
    "compatible_fragment_ratio": 1.0,
    "num_compatible_fragments": 3081781,
    "num_assigned_fragments": 3081781,
    "num_frags_with_concordant_consistent_mappings": 3081559,
    "num_frags_with_inconsistent_or_orphan_mappings": 445,
    "strand_mapping_bias": 0.9998556134255504,
    "MSF": 0,
    "OSF": 0,
    "ISF": 0,
    "MSR": 0,
    "OSR": 0,
    "ISR": 0,
    "SF": 3081559,
    "SR": 445,
    "MU": 0,
    "OU": 0,
    "IU": 0,
    "U": 0
}