{
    "read_files": "[ ../trimming/16_MSO_Ad_S82_L001.Trimmed.fastq.gz ]",
    "expected_format": "SF",
    "compatible_fragment_ratio": 1.0,
    "num_compatible_fragments": 1437635,
    "num_assigned_fragments": 1437635,
    "num_frags_with_concordant_consistent_mappings": 1437339,
    "num_frags_with_inconsistent_or_orphan_mappings": 621,
    "strand_mapping_bias": 0.9995681381957774,
    "MSF": 0,
    "OSF": 0,
    "ISF": 0,
    "MSR": 0,
    "OSR": 0,
    "ISR": 0,
    "SF": 1437339,
    "SR": 621,
    "MU": 0,
    "OU": 0,
    "IU": 0,
    "U": 0
}