{
    "read_files": "[ /mnt/DATA/home/samuele/Shared/3-prime-tag/QEIC04119/Trematomus/trim/trim2/38_Br_S130_L002_1.Trimmed.fastq.gz ]",
    "expected_format": "SF",
    "compatible_fragment_ratio": 1.0,
    "num_compatible_fragments": 2202618,
    "num_assigned_fragments": 2202618,
    "num_frags_with_concordant_consistent_mappings": 2202346,
    "num_frags_with_inconsistent_or_orphan_mappings": 726,
    "strand_mapping_bias": 0.9996704601574529,
    "MSF": 0,
    "OSF": 0,
    "ISF": 0,
    "MSR": 0,
    "OSR": 0,
    "ISR": 0,
    "SF": 2202346,
    "SR": 726,
    "MU": 0,
    "OU": 0,
    "IU": 0,
    "U": 0
}