{
    "read_files": "[ ../trimming/3_MSO_Ad_S78_L001.Trimmed.fastq.gz ]",
    "expected_format": "SF",
    "compatible_fragment_ratio": 1.0,
    "num_compatible_fragments": 1842046,
    "num_assigned_fragments": 1842046,
    "num_frags_with_concordant_consistent_mappings": 1841507,
    "num_frags_with_inconsistent_or_orphan_mappings": 934,
    "strand_mapping_bias": 0.999493063821311,
    "MSF": 0,
    "OSF": 0,
    "ISF": 0,
    "MSR": 0,
    "OSR": 0,
    "ISR": 0,
    "SF": 1841507,
    "SR": 934,
    "MU": 0,
    "OU": 0,
    "IU": 0,
    "U": 0
}