{
    "read_files": "[ ../trimming/32_MSO_Ad_S169_L002.Trimmed.fastq.gz ]",
    "expected_format": "SF",
    "compatible_fragment_ratio": 1.0,
    "num_compatible_fragments": 6997625,
    "num_assigned_fragments": 6997625,
    "num_frags_with_concordant_consistent_mappings": 6997464,
    "num_frags_with_inconsistent_or_orphan_mappings": 395,
    "strand_mapping_bias": 0.9999435541642093,
    "MSF": 0,
    "OSF": 0,
    "ISF": 0,
    "MSR": 0,
    "OSR": 0,
    "ISR": 0,
    "SF": 6997464,
    "SR": 395,
    "MU": 0,
    "OU": 0,
    "IU": 0,
    "U": 0
}