{
    "read_files": "[ ../trimming/42_MSO_Ad_S91_L002.Trimmed.fastq.gz ]",
    "expected_format": "SF",
    "compatible_fragment_ratio": 1.0,
    "num_compatible_fragments": 3053778,
    "num_assigned_fragments": 3053778,
    "num_frags_with_concordant_consistent_mappings": 3053655,
    "num_frags_with_inconsistent_or_orphan_mappings": 265,
    "strand_mapping_bias": 0.9999132262796668,
    "MSF": 0,
    "OSF": 0,
    "ISF": 0,
    "MSR": 0,
    "OSR": 0,
    "ISR": 0,
    "SF": 3053655,
    "SR": 265,
    "MU": 0,
    "OU": 0,
    "IU": 0,
    "U": 0
}