{
    "read_files": "[ /mnt/DATA/home/samuele/Shared/3-prime-tag/QEIC04119/Trematomus/trim/trim2/36_Mu_S22_L001_1.Trimmed.fastq.gz ]",
    "expected_format": "SF",
    "compatible_fragment_ratio": 1.0,
    "num_compatible_fragments": 2846875,
    "num_assigned_fragments": 2846875,
    "num_frags_with_concordant_consistent_mappings": 2846581,
    "num_frags_with_inconsistent_or_orphan_mappings": 533,
    "strand_mapping_bias": 0.9998127928843033,
    "MSF": 0,
    "OSF": 0,
    "ISF": 0,
    "MSR": 0,
    "OSR": 0,
    "ISR": 0,
    "SF": 2846581,
    "SR": 533,
    "MU": 0,
    "OU": 0,
    "IU": 0,
    "U": 0
}