{
    "read_files": "[ ../trimming/38_B_ad_S105_L002.Trimmed.fastq.gz ]",
    "expected_format": "SF",
    "compatible_fragment_ratio": 1.0,
    "num_compatible_fragments": 2898774,
    "num_assigned_fragments": 2898774,
    "num_frags_with_concordant_consistent_mappings": 2898244,
    "num_frags_with_inconsistent_or_orphan_mappings": 916,
    "strand_mapping_bias": 0.9996840464134439,
    "MSF": 0,
    "OSF": 0,
    "ISF": 0,
    "MSR": 0,
    "OSR": 0,
    "ISR": 0,
    "SF": 2898244,
    "SR": 916,
    "MU": 0,
    "OU": 0,
    "IU": 0,
    "U": 0
}