"","logFC.LT10vs5","logFC.LT20vs5","logCPM","F","PValue","FDR"
"NODE_40429_length_485_cov_149.953488_g26663_i0",-9.10752692377286,-9.07113032091637,6.86167342120194,64.2807730313553,3.62491074851534e-09,0.000104955665812513
"NODE_48953_length_402_cov_194.282421_g34248_i0",-6.01524828039012,-7.15301402584918,8.05579903945444,38.2274894773283,2.24584985180413e-07,0.0028038652173148
"OQV17502.1",4.59388547758512,5.11439271591157,5.77451409383777,36.9482757204776,2.90515840710934e-07,0.0028038652173148
"TRINITY_DN46246_c0_g1_i5",-7.70589836844356,-8.30547014887077,5.2784746317501,34.2860675658039,5.08208749544095e-07,0.00351437415013081
"NODE_41374_length_590_cov_105.549515_g23247_i1",-2.20019058338241,-8.58932701994389,5.7272376784223,33.4736458498563,6.06889229490021e-07,0.00351437415013081
"NODE_60033_length_419_cov_617.261628_g36834_i0",-6.65073945977287,-6.02859934650752,10.0131173183193,30.3080868413626,1.25309465339155e-06,0.00604701709904983
"TRINITY_DN48795_c0_g1_i1",-7.04695982407247,-7.47504709877431,8.54294655485158,28.5570195403976,1.91914755076435e-06,0.00793814259783302
"TRINITY_DN51046_c0_g1_i1",2.0062613422826,2.22956710643018,10.2148922933055,27.0976476985638,2.77989558364302e-06,0.009156870432562
"OQV21646.1",-5.32186447392048,-5.10384183854796,7.56516384107713,27.0065894399695,2.84630219980169e-06,0.009156870432562
"TRINITY_DN47495_c0_g1_i5",-6.22078358118254,-5.7535530193536,7.23684071712201,25.692548792117,4.02857718432208e-06,0.00940326453824441
"NODE_80062_length_274_cov_1016.767123_g64729_i0",-8.89030516942712,-8.92361031299541,4.87111905094598,25.6228115262941,4.10502046885847e-06,0.00940326453824441
"TRINITY_DN7103_c0_g1_i1",-9.54593309887114,-9.0926417198373,4.70876392504004,25.5112858780215,4.23062575672718e-06,0.00940326453824441
"NODE_30375_length_646_cov_261.675127_g18560_i0",-2.1702547370514,-3.74938157095068,6.89557155745738,25.4490917306294,4.30251313139256e-06,0.00940326453824441
"TRINITY_DN50844_c0_g1_i2",-6.43065031600007,-9.51663040119349,5.01730970245912,25.2460878725977,4.54671905558547e-06,0.00940326453824441
