{
    "read_files": "[ /mnt/DATA/home/samuele/Shared/3-prime-tag/QEIC04119/Trematomus/trim/trim2/24_Ce_S144_L002_1.Trimmed.fastq.gz ]",
    "expected_format": "SF",
    "compatible_fragment_ratio": 1.0,
    "num_compatible_fragments": 2743754,
    "num_assigned_fragments": 2743754,
    "num_frags_with_concordant_consistent_mappings": 2743473,
    "num_frags_with_inconsistent_or_orphan_mappings": 757,
    "strand_mapping_bias": 0.9997241484860963,
    "MSF": 0,
    "OSF": 0,
    "ISF": 0,
    "MSR": 0,
    "OSR": 0,
    "ISR": 0,
    "SF": 2743473,
    "SR": 757,
    "MU": 0,
    "OU": 0,
    "IU": 0,
    "U": 0
}