{
    "read_files": "[ ../trimming/31_GD_Ad_S67_L001.Trimmed.fastq.gz ]",
    "expected_format": "SF",
    "compatible_fragment_ratio": 1.0,
    "num_compatible_fragments": 2772594,
    "num_assigned_fragments": 2772594,
    "num_frags_with_concordant_consistent_mappings": 2772378,
    "num_frags_with_inconsistent_or_orphan_mappings": 392,
    "strand_mapping_bias": 0.9998586251293833,
    "MSF": 0,
    "OSF": 0,
    "ISF": 0,
    "MSR": 0,
    "OSR": 0,
    "ISR": 0,
    "SF": 2772378,
    "SR": 392,
    "MU": 0,
    "OU": 0,
    "IU": 0,
    "U": 0
}