{
    "read_files": "[ ../trimming/17_B_Ad_S158_L002.Trimmed.fastq.gz ]",
    "expected_format": "SF",
    "compatible_fragment_ratio": 1.0,
    "num_compatible_fragments": 1488539,
    "num_assigned_fragments": 1488539,
    "num_frags_with_concordant_consistent_mappings": 1488343,
    "num_frags_with_inconsistent_or_orphan_mappings": 361,
    "strand_mapping_bias": 0.9997575072008942,
    "MSF": 0,
    "OSF": 0,
    "ISF": 0,
    "MSR": 0,
    "OSR": 0,
    "ISR": 0,
    "SF": 1488343,
    "SR": 361,
    "MU": 0,
    "OU": 0,
    "IU": 0,
    "U": 0
}