{
    "read_files": "[ /mnt/DATA/Shared/Whole/Acutuncus_antarticus/trimm/20-LT-6_S26_L001.1.Trimmed.fastq.gz, /mnt/DATA/Shared/Whole/Acutuncus_antarticus/trimm/20-LT-6_S26_L001.2.Trimmed.fastq.gz]",
    "expected_format": "ISR",
    "compatible_fragment_ratio": 1.0,
    "num_compatible_fragments": 19973628,
    "num_assigned_fragments": 19973628,
    "num_frags_with_concordant_consistent_mappings": 14999573,
    "num_frags_with_inconsistent_or_orphan_mappings": 5271519,
    "strand_mapping_bias": 0.00001160019565663341,
    "MSF": 0,
    "OSF": 0,
    "ISF": 174,
    "MSR": 0,
    "OSR": 0,
    "ISR": 14999573,
    "SF": 2770146,
    "SR": 2501199,
    "MU": 0,
    "OU": 0,
    "IU": 0,
    "U": 0
}