{
    "read_files": "[ /mnt/DATA/home/samuele/Shared/3-prime-tag/QEIC04119/Trematomus/trim/trim2/6_Mu_S10_L001_1.Trimmed.fastq.gz ]",
    "expected_format": "SF",
    "compatible_fragment_ratio": 1.0,
    "num_compatible_fragments": 5309073,
    "num_assigned_fragments": 5309073,
    "num_frags_with_concordant_consistent_mappings": 5308710,
    "num_frags_with_inconsistent_or_orphan_mappings": 492,
    "strand_mapping_bias": 0.9999073307061965,
    "MSF": 0,
    "OSF": 0,
    "ISF": 0,
    "MSR": 0,
    "OSR": 0,
    "ISR": 0,
    "SF": 5308710,
    "SR": 492,
    "MU": 0,
    "OU": 0,
    "IU": 0,
    "U": 0
}