{
    "salmon_version": "1.2.1",
    "libType": "A",
    "index": "../Treber_NCBI_transcriptome.idx",
    "unmatedReads": "/mnt/DATA/home/samuele/Shared/3-prime-tag/QEIC04119/Trematomus/trim/trim2/3_Ce_S136_L002_1.Trimmed.fastq.gz",
    "validateMappings": [],
    "output": "3_Ce_S136_L002_1.mapping",
    "threads": "64",
    "auxDir": "aux_info"
}