{
    "read_files": "[ /mnt/DATA/Shared/Whole/Acutuncus_antarticus/trimm/10-BT-9_S13_L001.1.Trimmed.fastq.gz, /mnt/DATA/Shared/Whole/Acutuncus_antarticus/trimm/10-BT-9_S13_L001.2.Trimmed.fastq.gz]",
    "expected_format": "ISR",
    "compatible_fragment_ratio": 1.0,
    "num_compatible_fragments": 31601562,
    "num_assigned_fragments": 31601562,
    "num_frags_with_concordant_consistent_mappings": 15558251,
    "num_frags_with_inconsistent_or_orphan_mappings": 16769131,
    "strand_mapping_bias": 0.0000122762934746294,
    "MSF": 0,
    "OSF": 0,
    "ISF": 191,
    "MSR": 0,
    "OSR": 0,
    "ISR": 15558251,
    "SF": 11023248,
    "SR": 5745692,
    "MU": 0,
    "OU": 0,
    "IU": 0,
    "U": 0
}