{
    "read_files": "[ /mnt/DATA/home/samuele/Shared/3-prime-tag/QEIC04119/Trematomus/trim/trim2/38_Ce_S6_L001_1.Trimmed.fastq.gz ]",
    "expected_format": "SF",
    "compatible_fragment_ratio": 1.0,
    "num_compatible_fragments": 3844725,
    "num_assigned_fragments": 3844725,
    "num_frags_with_concordant_consistent_mappings": 3844339,
    "num_frags_with_inconsistent_or_orphan_mappings": 787,
    "strand_mapping_bias": 0.9997953253027339,
    "MSF": 0,
    "OSF": 0,
    "ISF": 0,
    "MSR": 0,
    "OSR": 0,
    "ISR": 0,
    "SF": 3844339,
    "SR": 787,
    "MU": 0,
    "OU": 0,
    "IU": 0,
    "U": 0
}