{
    "read_files": "[ ../trimming/6_GD_Ad_S56_L001.Trimmed.fastq.gz ]",
    "expected_format": "SF",
    "compatible_fragment_ratio": 1.0,
    "num_compatible_fragments": 3260367,
    "num_assigned_fragments": 3260367,
    "num_frags_with_concordant_consistent_mappings": 3260159,
    "num_frags_with_inconsistent_or_orphan_mappings": 400,
    "strand_mapping_bias": 0.9998773216494472,
    "MSF": 0,
    "OSF": 0,
    "ISF": 0,
    "MSR": 0,
    "OSR": 0,
    "ISR": 0,
    "SF": 3260159,
    "SR": 400,
    "MU": 0,
    "OU": 0,
    "IU": 0,
    "U": 0
}