{
    "read_files": "[ ../trimming/16_B_Ad_S157_L002.Trimmed.fastq.gz ]",
    "expected_format": "SF",
    "compatible_fragment_ratio": 1.0,
    "num_compatible_fragments": 2725692,
    "num_assigned_fragments": 2725692,
    "num_frags_with_concordant_consistent_mappings": 2725482,
    "num_frags_with_inconsistent_or_orphan_mappings": 386,
    "strand_mapping_bias": 0.9998583937299972,
    "MSF": 0,
    "OSF": 0,
    "ISF": 0,
    "MSR": 0,
    "OSR": 0,
    "ISR": 0,
    "SF": 2725482,
    "SR": 386,
    "MU": 0,
    "OU": 0,
    "IU": 0,
    "U": 0
}