{
    "salmon_version": "1.8.0",
    "samp_type": "none",
    "opt_type": "vb",
    "quant_errors": [],
    "num_libraries": 1,
    "library_types": [
        "ISR"
    ],
    "frag_dist_length": 1001,
    "frag_length_mean": 247.63275419507569,
    "frag_length_sd": 103.93366230618256,
    "seq_bias_correct": false,
    "gc_bias_correct": false,
    "num_bias_bins": 4096,
    "mapping_type": "mapping",
    "keep_duplicates": false,
    "num_valid_targets": 117822,
    "num_decoy_targets": 0,
    "num_eq_classes": 54451,
    "serialized_eq_classes": false,
    "eq_class_properties": [
        "range_factorized",
        "gzipped"
    ],
    "length_classes": [
        247,
        282,
        436,
        866,
        8157
    ],
    "index_seq_hash": "b3ee1198a19160192af0fa984d901158b1129f3cd9808a774c5bc524ca2b5bb0",
    "index_name_hash": "45bb2346d54463375dc3422cc0355bc46e0a5cdc6e88badb1e74c04d235ddb1f",
    "index_seq_hash512": "35f6e8cbcfad6af5dfe34e98022aa521320c38ae85ab8be19dab8f744188d070f84b8ced20a2cdaaef4964385377712bb3a738e4df07855d0124c19db0a390a1",
    "index_name_hash512": "1d0c56eccf073b80f7c7429616103531c0770b3c5c55f06240ada6f3d6f0de6d0fa14eee28d7a1b7f8b22f6edde5352d56d47ca7050d9b85f351b5e5a3df5225",
    "index_decoy_seq_hash": "e3b0c44298fc1c149afbf4c8996fb92427ae41e4649b934ca495991b7852b855",
    "index_decoy_name_hash": "e3b0c44298fc1c149afbf4c8996fb92427ae41e4649b934ca495991b7852b855",
    "num_bootstraps": 0,
    "num_processed": 2817802,
    "num_mapped": 2561994,
    "num_decoy_fragments": 0,
    "num_dovetail_fragments": 490532,
    "num_fragments_filtered_vm": 189555,
    "num_alignments_below_threshold_for_mapped_fragments_vm": 36030808,
    "percent_mapped": 90.92171841740478,
    "call": "quant",
    "start_time": "Mon Jun 13 16:23:59 2022",
    "end_time": "Mon Jun 13 16:25:44 2022"
}