{
    "read_files": "[ /mnt/DATA/Shared/Whole/Acutuncus_antarticus/trimm/5C-7_S9_L001.1.Trimmed.fastq.gz, /mnt/DATA/Shared/Whole/Acutuncus_antarticus/trimm/5C-7_S9_L001.2.Trimmed.fastq.gz]",
    "expected_format": "ISR",
    "compatible_fragment_ratio": 1.0,
    "num_compatible_fragments": 49689172,
    "num_assigned_fragments": 49689172,
    "num_frags_with_concordant_consistent_mappings": 32730297,
    "num_frags_with_inconsistent_or_orphan_mappings": 17669332,
    "strand_mapping_bias": 0.0000016498448183461278,
    "MSF": 0,
    "OSF": 0,
    "ISF": 54,
    "MSR": 0,
    "OSR": 0,
    "ISR": 32730297,
    "SF": 11261877,
    "SR": 6407401,
    "MU": 0,
    "OU": 0,
    "IU": 0,
    "U": 0
}