{
    "read_files": "[ /mnt/DATA/home/samuele/Shared/3-prime-tag/QEIC04119/Trematomus/trim/trim2/32_Ce_S150_L002_1.Trimmed.fastq.gz ]",
    "expected_format": "SF",
    "compatible_fragment_ratio": 1.0,
    "num_compatible_fragments": 1694680,
    "num_assigned_fragments": 1694680,
    "num_frags_with_concordant_consistent_mappings": 1694369,
    "num_frags_with_inconsistent_or_orphan_mappings": 731,
    "strand_mapping_bias": 0.9995687570054864,
    "MSF": 0,
    "OSF": 0,
    "ISF": 0,
    "MSR": 0,
    "OSR": 0,
    "ISR": 0,
    "SF": 1694369,
    "SR": 731,
    "MU": 0,
    "OU": 0,
    "IU": 0,
    "U": 0
}