{
    "read_files": "[ /mnt/DATA/Shared/Whole/Acutuncus_antarticus/trimm/5C-5_S8_L001.1.Trimmed.fastq.gz, /mnt/DATA/Shared/Whole/Acutuncus_antarticus/trimm/5C-5_S8_L001.2.Trimmed.fastq.gz]",
    "expected_format": "ISR",
    "compatible_fragment_ratio": 1.0,
    "num_compatible_fragments": 8972729,
    "num_assigned_fragments": 8972729,
    "num_frags_with_concordant_consistent_mappings": 5991208,
    "num_frags_with_inconsistent_or_orphan_mappings": 3085284,
    "strand_mapping_bias": 0.000017692279189506678,
    "MSF": 0,
    "OSF": 0,
    "ISF": 106,
    "MSR": 0,
    "OSR": 0,
    "ISR": 5991208,
    "SF": 2040394,
    "SR": 1044784,
    "MU": 0,
    "OU": 0,
    "IU": 0,
    "U": 0
}