{
    "read_files": "[ /mnt/DATA/Shared/Whole/Acutuncus_antarticus/trimm/15-BT-8_S19_L001.1.Trimmed.fastq.gz, /mnt/DATA/Shared/Whole/Acutuncus_antarticus/trimm/15-BT-8_S19_L001.2.Trimmed.fastq.gz]",
    "expected_format": "ISR",
    "compatible_fragment_ratio": 1.0,
    "num_compatible_fragments": 13968035,
    "num_assigned_fragments": 13968035,
    "num_frags_with_concordant_consistent_mappings": 11338076,
    "num_frags_with_inconsistent_or_orphan_mappings": 2809022,
    "strand_mapping_bias": 0.000019844242977850035,
    "MSF": 0,
    "OSF": 0,
    "ISF": 225,
    "MSR": 0,
    "OSR": 0,
    "ISR": 11338076,
    "SF": 1647059,
    "SR": 1161738,
    "MU": 0,
    "OU": 0,
    "IU": 0,
    "U": 0
}