{
    "read_files": "[ ../trimming/39_MSO_Ad_S89_L002.Trimmed.fastq.gz ]",
    "expected_format": "SF",
    "compatible_fragment_ratio": 1.0,
    "num_compatible_fragments": 5272440,
    "num_assigned_fragments": 5272440,
    "num_frags_with_concordant_consistent_mappings": 5272281,
    "num_frags_with_inconsistent_or_orphan_mappings": 372,
    "strand_mapping_bias": 0.9999294472820419,
    "MSF": 0,
    "OSF": 0,
    "ISF": 0,
    "MSR": 0,
    "OSR": 0,
    "ISR": 0,
    "SF": 5272281,
    "SR": 372,
    "MU": 0,
    "OU": 0,
    "IU": 0,
    "U": 0
}