{
    "read_files": "[ ../trimming/26_B_Ad_S160_L002.Trimmed.fastq.gz ]",
    "expected_format": "SF",
    "compatible_fragment_ratio": 1.0,
    "num_compatible_fragments": 4381739,
    "num_assigned_fragments": 4381739,
    "num_frags_with_concordant_consistent_mappings": 4381587,
    "num_frags_with_inconsistent_or_orphan_mappings": 269,
    "strand_mapping_bias": 0.999938610488341,
    "MSF": 0,
    "OSF": 0,
    "ISF": 0,
    "MSR": 0,
    "OSR": 0,
    "ISR": 0,
    "SF": 4381587,
    "SR": 269,
    "MU": 0,
    "OU": 0,
    "IU": 0,
    "U": 0
}