{
    "read_files": "[ ../trimming/28_MSO_Ad_S167_L002.Trimmed.fastq.gz ]",
    "expected_format": "SF",
    "compatible_fragment_ratio": 1.0,
    "num_compatible_fragments": 4492943,
    "num_assigned_fragments": 4492943,
    "num_frags_with_concordant_consistent_mappings": 4492828,
    "num_frags_with_inconsistent_or_orphan_mappings": 284,
    "strand_mapping_bias": 0.9999367921387226,
    "MSF": 0,
    "OSF": 0,
    "ISF": 0,
    "MSR": 0,
    "OSR": 0,
    "ISR": 0,
    "SF": 4492828,
    "SR": 284,
    "MU": 0,
    "OU": 0,
    "IU": 0,
    "U": 0
}