{
    "salmon_version": "1.8.0",
    "index": "Acuant_ORP_clean.idx/",
    "libType": "A",
    "mates1": "/mnt/DATA/Shared/Whole/Acutuncus_antarticus/trimm/15C-LT-5_S22_L001.1.Trimmed.fastq.gz",
    "mates2": "/mnt/DATA/Shared/Whole/Acutuncus_antarticus/trimm/15C-LT-5_S22_L001.2.Trimmed.fastq.gz",
    "validateMappings": [],
    "output": "15C-LT-5.gene_mapping",
    "threads": "64",
    "geneMap": "trans2gene/trans_to_gene_map.tsv",
    "auxDir": "aux_info"
}