{
    "salmon_version": "1.2.1",
    "libType": "A",
    "index": "../Treber_NCBI_transcriptome.idx",
    "unmatedReads": "/mnt/DATA/home/samuele/Shared/3-prime-tag/QEIC04119/Trematomus/trim/trim2/41_Mu_S25_L001_1.Trimmed.fastq.gz",
    "validateMappings": [],
    "output": "41_Mu_S25_L001_1.mapping",
    "threads": "64",
    "auxDir": "aux_info"
}