{
    "read_files": "[ /mnt/DATA/Shared/Whole/Acutuncus_antarticus/trimm/15-BT-7_S18_L001.1.Trimmed.fastq.gz, /mnt/DATA/Shared/Whole/Acutuncus_antarticus/trimm/15-BT-7_S18_L001.2.Trimmed.fastq.gz]",
    "expected_format": "ISR",
    "compatible_fragment_ratio": 1.0,
    "num_compatible_fragments": 23239899,
    "num_assigned_fragments": 23239899,
    "num_frags_with_concordant_consistent_mappings": 17471065,
    "num_frags_with_inconsistent_or_orphan_mappings": 6105372,
    "strand_mapping_bias": 0.000010531588211008841,
    "MSF": 0,
    "OSF": 0,
    "ISF": 184,
    "MSR": 0,
    "OSR": 0,
    "ISR": 17471065,
    "SF": 3684642,
    "SR": 2420546,
    "MU": 0,
    "OU": 0,
    "IU": 0,
    "U": 0
}