{
    "read_files": "[ /mnt/DATA/home/samuele/Shared/3-prime-tag/QEIC04119/Trematomus/trim/trim2/3_Mu_S9_L001_1.Trimmed.fastq.gz ]",
    "expected_format": "SF",
    "compatible_fragment_ratio": 1.0,
    "num_compatible_fragments": 4082841,
    "num_assigned_fragments": 4082841,
    "num_frags_with_concordant_consistent_mappings": 4082536,
    "num_frags_with_inconsistent_or_orphan_mappings": 441,
    "strand_mapping_bias": 0.9998919905745244,
    "MSF": 0,
    "OSF": 0,
    "ISF": 0,
    "MSR": 0,
    "OSR": 0,
    "ISR": 0,
    "SF": 4082536,
    "SR": 441,
    "MU": 0,
    "OU": 0,
    "IU": 0,
    "U": 0
}