{
    "salmon_version": "1.2.1",
    "samp_type": "none",
    "opt_type": "vb",
    "quant_errors": [],
    "num_libraries": 1,
    "library_types": [
        "SF"
    ],
    "frag_dist_length": 1001,
    "seq_bias_correct": false,
    "gc_bias_correct": false,
    "num_bias_bins": 4096,
    "mapping_type": "mapping",
    "keep_duplicates": false,
    "num_valid_targets": 43784,
    "num_decoy_targets": 0,
    "num_eq_classes": 31203,
    "serialized_eq_classes": false,
    "eq_class_properties": [
        "range_factorized",
        "gzipped"
    ],
    "length_classes": [
        1292,
        2040,
        2938,
        4396,
        27060
    ],
    "index_seq_hash": "b351e2e8108f787fae1ea79d804ab469d983d216df343af43ee29f9862297775",
    "index_name_hash": "d81be5ad1ff78bd79f52748ec9f0ccda7a49e2c435fd2c0ee8a46f617f3a8c01",
    "index_seq_hash512": "1040de63d9ee0108650e969b36b2cae17c644a9bab9294b91ebe03eac1a785756c517ff84ee1447e4545c7930d13e8a61538304275eecf044c364019b553a330",
    "index_name_hash512": "c7b2e4f3502e08b7da0bd354c6725ef35c4d3297854ea801926ffca2cfbc92cbbb6c072adfaf83cffff830cf91f09d6459d15a3b48fef34bbc87da7a40310b57",
    "index_decoy_seq_hash": "e3b0c44298fc1c149afbf4c8996fb92427ae41e4649b934ca495991b7852b855",
    "index_decoy_name_hash": "e3b0c44298fc1c149afbf4c8996fb92427ae41e4649b934ca495991b7852b855",
    "num_bootstraps": 0,
    "num_processed": 3941054,
    "num_mapped": 1482002,
    "num_decoy_fragments": 0,
    "num_dovetail_fragments": 0,
    "num_fragments_filtered_vm": 190411,
    "num_alignments_below_threshold_for_mapped_fragments_vm": 2517318,
    "percent_mapped": 37.60420435751451,
    "call": "quant",
    "start_time": "Mon Mar 08 12:25:42 2021",
    "end_time": "Mon Mar 08 12:25:55 2021"
}