{
    "read_files": "[ /mnt/DATA/Shared/Whole/Acutuncus_antarticus/trimm/20C-5C-LT-4_S34_L001.1.Trimmed.fastq.gz, /mnt/DATA/Shared/Whole/Acutuncus_antarticus/trimm/20C-5C-LT-4_S34_L001.2.Trimmed.fastq.gz]",
    "expected_format": "ISR",
    "compatible_fragment_ratio": 1.0,
    "num_compatible_fragments": 19559524,
    "num_assigned_fragments": 19559524,
    "num_frags_with_concordant_consistent_mappings": 15938349,
    "num_frags_with_inconsistent_or_orphan_mappings": 3862907,
    "strand_mapping_bias": 0.000013050114888066717,
    "MSF": 0,
    "OSF": 0,
    "ISF": 208,
    "MSR": 0,
    "OSR": 0,
    "ISR": 15938349,
    "SF": 2222494,
    "SR": 1640205,
    "MU": 0,
    "OU": 0,
    "IU": 0,
    "U": 0
}